{
	"mapcontainer":"CesiumViewer",
	"startViewPoint":"Berlin",
	"maps":[
    {
			"type":"vcs.vcm.maps.Cesium",
			"name":"cesium",
			"startingmap":true
		},
		{
			"type":"vcs.vcm.maps.Openlayers",
			"name":"ol3"
		}
	],
  "selectBehavior": {
    "highlightStyle": {
      "selectionset": {
        "color": "#3F51B5"
      },
      "currentItem": {
        "color": "#F44336",
        "pointStyle": {
          "icon": {
            "scale": 1,
            "src": "{layerIcon}"
          }
        },
        "lineStyle": {
          "color": "#3399CC",
          "width": 1.25
        },
        "polygonStyle": {
          "fill": {
            "color": "rgba(255,255,255,0.4)"
          },
          "stroke": {
            "color": "rgba(255,0,0,1)",
            "width": 1
          }
        }
      }
    }
  },
	"layers":[
    {
			"type":"vcs.vcm.layer.TMSBase",
			"name":"base",
			"activeOnStartup":true,
			"url":"../data/tms/",
			"format":"jpg",
			"minZoom":13,
			"maxZoom":19,
      "extent": {
        "coordinates": [13.39657249732205,52.49127999816725,13.42722986993895,52.50998943590507],
        "epsg" : 4326
      }
		},
		{
			"type":"vcs.vcm.layer.cesium.Terrain",
			"name":"Terrain",
			"activeOnStartup":false,
			"url":"../data/terrain/",
			"requestVertexNormals":true
		},
		{
			"type":"vcs.vcm.layer.cesium.Buildings",
			"name":"buildings",
			"activeOnStartup":false,
			"exclusive":"bldg",
			"url":"../data/buildings/"
		}
	],
	"viewpoints": [
		{
			"groundPosition": [
							 13.408696707025536, 52.498567702843495, 34.57935990346111
			],
			"pitch": -51.45279243021076,
			"type": "vcs.vcm.util.ViewPoint",
			"heading": 359.5122303104248,
			"distance":2634.783885070904,
			"name":"Berlin",
			"animate":true
		}
	]
}
